%YAML 1.1
%TAG !u! tag:unity3d.com,2011:
--- !u!687078895 &4343727234628468602
SpriteAtlas:
  m_ObjectHideFlags: 0
  m_CorrespondingSourceObject: {fileID: 0}
  m_PrefabInstance: {fileID: 0}
  m_PrefabAsset: {fileID: 0}
  m_Name: WindowElements
  m_EditorData:
    serializedVersion: 2
    textureSettings:
      serializedVersion: 2
      anisoLevel: 1
      compressionQuality: 50
      maxTextureSize: 2048
      textureCompression: 0
      filterMode: 1
      generateMipMaps: 0
      readable: 0
      crunchedCompression: 0
      sRGB: 0
    platformSettings:
    - serializedVersion: 3
      m_BuildTarget: iPhone
      m_MaxTextureSize: 2048
      m_ResizeAlgorithm: 0
      m_TextureFormat: 33
      m_TextureCompression: 1
      m_CompressionQuality: 50
      m_CrunchedCompression: 0
      m_AllowsAlphaSplitting: 0
      m_Overridden: 1
      m_AndroidETC2FallbackOverride: 0
      m_ForceMaximumCompressionQuality_BC6H_BC7: 1
    - serializedVersion: 3
      m_BuildTarget: Android
      m_MaxTextureSize: 2048
      m_ResizeAlgorithm: 0
      m_TextureFormat: 12
      m_TextureCompression: 1
      m_CompressionQuality: 50
      m_CrunchedCompression: 0
      m_AllowsAlphaSplitting: 0
      m_Overridden: 1
      m_AndroidETC2FallbackOverride: 0
      m_ForceMaximumCompressionQuality_BC6H_BC7: 1
    packingSettings:
      serializedVersion: 2
      padding: 2
      blockOffset: 1
      allowAlphaSplitting: 0
      enableRotation: 1
      enableTightPacking: 0
    variantMultiplier: 1
    packables:
    - {fileID: 102900000, guid: 81f61f3f1adf6d949ac94cd188233e30, type: 3}
    totalSpriteSurfaceArea: 579508
    bindAsDefault: 1
    storedHash:
      serializedVersion: 2
      Hash: db3227acc8227a8aeade5487584ef16d
  m_MasterAtlas: {fileID: 0}
  m_PackedSprites:
  - {fileID: 21300000, guid: b48588a06b9d72f4c80304c760af5cea, type: 3}
  - {fileID: 21300000, guid: cc0ceaf036327d04eae12cc8b064f3b5, type: 3}
  - {fileID: 21300000, guid: c83289a27f853914f80692f5f60b84a1, type: 3}
  - {fileID: 21300000, guid: 161d211314900ae41ab9bd66493ab4f3, type: 3}
  - {fileID: 21300000, guid: a01807a3a7dc8924fba085fb23c0ffda, type: 3}
  - {fileID: 21300000, guid: 1c4105b462bce3744ac4cb9846cd3f2e, type: 3}
  - {fileID: 21300000, guid: c40d21165aab12a428b2dc95866f9ec0, type: 3}
  - {fileID: 21300000, guid: 229dacb660adad947862cbac4af0ee43, type: 3}
  - {fileID: 21300000, guid: cb5a4a2736953f7478f9dcb491672137, type: 3}
  - {fileID: 21300000, guid: 77d89669fbc958f4aa377840e6705da7, type: 3}
  - {fileID: 21300000, guid: 6de4f4f908b236045b06cb7f475847b7, type: 3}
  - {fileID: 21300000, guid: b4a4134a241edc1479181ba44b2a6548, type: 3}
  - {fileID: 21300000, guid: 664993fb4a5a523489bd2d164df0aa00, type: 3}
  - {fileID: 21300000, guid: 81e0ceeca4a340a409dd9a4352199bcb, type: 3}
  - {fileID: 21300000, guid: b0517dee2d34cd640bcf1eaf2ebda5e6, type: 3}
  - {fileID: 21300000, guid: b126abaf75c1782478769f1f8917a8df, type: 3}
  m_PackedSpriteNamesToIndex:
  - WindowBorderFrame
  - Close_button
  - 7
  - 9
  - CardMask
  - 8
  - PoligonTiled
  - 4
  - 6
  - 11
  - ActiveGlow
  - 12
  - WindowBorderMask
  - 3
  - CardFrame
  - 10
  m_Tag: WindowElements
  m_IsVariant: 0
